singlecycle.vcd
$date
	Tue Nov 26 18:20:27 2024
$end
$version
	Icarus Verilog
$end
$timescale
	1ps
$end
$scope module SingleCycleProcTest_v $end
$var wire 64 ! dMemOut [63:0] $end
$var wire 64 " currentPC [63:0] $end
$var reg 1 # CLK $end
$var reg 1 $ Reset_L $end
$var reg 8 % passed [7:0] $end
$var reg 64 & startPC [63:0] $end
$var reg 16 ' watchdog [15:0] $end
$scope module uut $end
$var wire 1 # CLK $end
$var wire 64 ( dmemout [63:0] $end
$var wire 1 $ resetl $end
$var wire 64 ) startpc [63:0] $end
$var wire 1 * zero $end
$var wire 1 + uncond_branch $end
$var wire 2 , signop [1:0] $end
$var wire 64 - shiftOutData [63:0] $end
$var wire 2 . shamt [1:0] $end
$var wire 5 / rn [4:0] $end
$var wire 5 0 rm [4:0] $end
$var wire 1 1 regwrite $end
$var wire 64 2 regoutB [63:0] $end
$var wire 64 3 regoutA [63:0] $end
$var wire 64 4 regWriteIn [63:0] $end
$var wire 64 5 regWriteData [63:0] $end
$var wire 1 6 reg2loc $end
$var wire 5 7 rd [4:0] $end
$var wire 11 8 opcode [10:0] $end
$var wire 64 9 nextpc [63:0] $end
$var wire 1 : movz $end
$var wire 16 ; movimm [15:0] $end
$var wire 1 < memwrite $end
$var wire 1 = memread $end
$var wire 1 > mem2reg $end
$var wire 32 ? instruction [31:0] $end
$var wire 64 @ extimm [63:0] $end
$var wire 64 A datMemReadData [63:0] $end
$var wire 64 B datMemAddr [63:0] $end
$var wire 1 C branch $end
$var wire 1 D alusrc $end
$var wire 4 E aluctrl [3:0] $end
$var wire 64 F ALUinputB [63:0] $end
$var reg 64 G currentpc [63:0] $end
$scope module ALUInputMux $end
$var wire 1 D sel $end
$var wire 64 H in1 [63:0] $end
$var wire 64 I in0 [63:0] $end
$var reg 64 J out [63:0] $end
$upscope $end
$scope module control $end
$var wire 11 K opcode [10:0] $end
$var reg 4 L aluop [3:0] $end
$var reg 1 D alusrc $end
$var reg 1 C branch $end
$var reg 1 > mem2reg $end
$var reg 1 = memread $end
$var reg 1 < memwrite $end
$var reg 1 : movz $end
$var reg 1 6 reg2loc $end
$var reg 1 1 regwrite $end
$var reg 2 M shamt [1:0] $end
$var reg 2 N signop [1:0] $end
$var reg 1 + uncond_branch $end
$upscope $end
$scope module datMemMux $end
$var wire 1 > sel $end
$var wire 64 O in1 [63:0] $end
$var wire 64 P in0 [63:0] $end
$var reg 64 Q out [63:0] $end
$upscope $end
$scope module dataMemory $end
$var wire 1 # Clock $end
$var wire 1 = MemoryRead $end
$var wire 1 < MemoryWrite $end
$var wire 64 R WriteData [63:0] $end
$var wire 64 S Address [63:0] $end
$var reg 64 T ReadData [63:0] $end
$scope task initset $end
$var reg 64 U addr [63:0] $end
$var reg 64 V data [63:0] $end
$upscope $end
$upscope $end
$scope module imem $end
$var wire 64 W Address [63:0] $end
$var parameter 32 X MemSize $end
$var parameter 32 Y T_rd $end
$var reg 32 Z Data [31:0] $end
$upscope $end
$scope module mainALU $end
$var wire 4 [ ALUCtrl [3:0] $end
$var wire 64 \ BusB [63:0] $end
$var wire 1 * Zero $end
$var wire 64 ] BusA [63:0] $end
$var parameter 32 ^ n $end
$var reg 64 _ BusW [63:0] $end
$upscope $end
$scope module nextPCLogic $end
$var wire 1 * ALUZero $end
$var wire 1 C Branch $end
$var wire 64 ` CurrentPC [63:0] $end
$var wire 1 + Uncondbranch $end
$var wire 64 a SignExtImm64 [63:0] $end
$var reg 64 b BranchTarget [63:0] $end
$var reg 64 c NextPC [63:0] $end
$var reg 64 d PCPlus4 [63:0] $end
$upscope $end
$scope module regWriteMux $end
$var wire 64 e in0 [63:0] $end
$var wire 1 : sel $end
$var wire 64 f in1 [63:0] $end
$var reg 64 g out [63:0] $end
$upscope $end
$scope module registers $end
$var wire 64 h BusW [63:0] $end
$var wire 1 # Clk $end
$var wire 5 i RA [4:0] $end
$var wire 5 j RB [4:0] $end
$var wire 5 k RW [4:0] $end
$var wire 1 1 RegWr $end
$var wire 1 : movz $end
$var reg 64 l BusA [63:0] $end
$var reg 64 m BusB [63:0] $end
$upscope $end
$scope module shifter $end
$var wire 16 n imm16 [15:0] $end
$var wire 2 o shamt [1:0] $end
$var reg 64 p result [63:0] $end
$upscope $end
$scope module signExtend $end
$var wire 2 q Ctrl [1:0] $end
$var wire 32 r Imm32 [31:0] $end
$var reg 64 s BusImm [63:0] $end
$upscope $end
$upscope $end
$scope task allPassed $end
$var reg 8 t numTests [7:0] $end
$var reg 8 u passed [7:0] $end
$upscope $end
$scope task passTest $end
$var reg 64 v actualOut [63:0] $end
$var reg 64 w expectedOut [63:0] $end
$var reg 8 x passed [7:0] $end
$var reg 257 y testType [256:0] $end
$upscope $end
$upscope $end
$enddefinitions $end
$comment Show the parameter values. $end
$dumpall
b1000000 ^
b10100 Y
b101000 X
$end
#0
$dumpvars
bx y
bx x
bx w
bx v
bx u
bx t
bx s
bx r
bx q
bx p
bx o
bx n
bx m
bx l
bx k
bx j
bx i
bx h
bx g
bx f
bx e
bx d
bx c
bx b
bx a
bx `
bx _
bx ]
bx \
bx [
bx Z
bx W
b0 V
b100000 U
bx T
bx S
bx R
bx Q
bx P
bx O
bx N
bx M
bx L
bx K
bx J
bx I
bx H
bx G
bx F
bx E
xD
xC
bx B
bx A
bx @
bx ?
x>
x=
x<
bx ;
x:
bx 9
bx 8
bx 7
x6
bx 5
bx 4
bx 3
bx 2
x1
bx 0
bx /
bx .
bx -
bx ,
x+
x*
b0 )
bx (
b0 '
b0 &
b0 %
1$
0#
bx "
bx !
$end
#60000
1#
#120000
b1 '
0#
#121000
0$
#180000
1#
#240000
b0 "
b0 G
b0 W
b0 `
b10 '
0#
#241000
b100 d
1$
#244000
0:
b0 .
b0 M
b0 o
b1 ,
b1 N
b1 q
b10 E
b10 L
b10 [
0+
0C
0<
1=
11
1>
1D
bx 4
bx g
bx h
b0 F
b0 J
b0 \
b11111 -
b11111 f
b11111 p
b0x00x /
b0x00x j
b0 @
b0 H
b0 a
b0 s
b11111 ;
b11111 n
b11111000010 8
b11111000010 K
b11111 0
b11111 i
b1001 7
b1001 k
b100 9
b100 c
b11111000010000000000001111101001 ?
b11111000010000000000001111101001 Z
b11111000010000000000001111101001 r
#246000
1*
b0 B
b0 P
b0 S
b0 _
b0 3
b0 ]
b0 l
#247000
b0 b
#300000
1#
#320000
b1 4
b1 g
b1 h
b1 5
b1 Q
b1 e
b1 !
b1 (
b1 A
b1 O
b1 T
#360000
b100 "
b100 G
b100 W
b100 `
b11 '
0#
#361000
b1000 d
#363000
b100 b
#364000
0*
b1000 B
b1000 P
b1000 S
b1000 _
b1000 F
b1000 J
b1000 \
b10000011111 -
b10000011111 f
b10000011111 p
b0x0x0 /
b0x0x0 j
b1000 @
b1000 H
b1000 a
b1000 s
b10000011111 ;
b10000011111 n
b1010 7
b1010 k
b1000 9
b1000 c
b11111000010000001000001111101010 ?
b11111000010000001000001111101010 Z
b11111000010000001000001111101010 r
#367000
b100100 b
#420000
1#
#440000
b1010 4
b1010 g
b1010 h
b1010 5
b1010 Q
b1010 e
b1010 !
b1010 (
b1010 A
b1010 O
b1010 T
#480000
b1000 "
b1000 G
b1000 W
b1000 `
b100 '
0#
#481000
b1100 d
#483000
b101000 b
#484000
b10000 B
b10000 P
b10000 S
b10000 _
b10000 F
b10000 J
b10000 \
b100000011111 -
b100000011111 f
b100000011111 p
b0x0x1 /
b0x0x1 j
b10000 @
b10000 H
b10000 a
b10000 s
b100000011111 ;
b100000011111 n
b1011 7
b1011 k
b1100 9
b1100 c
b11111000010000010000001111101011 ?
b11111000010000010000001111101011 Z
b11111000010000010000001111101011 r
#487000
b1001000 b
#540000
1#
#560000
b101 4
b101 g
b101 h
b101 5
b101 Q
b101 e
b101 !
b101 (
b101 A
b101 O
b101 T
#600000
b1100 "
b1100 G
b1100 W
b1100 `
b101 '
0#
#601000
b10000 d
#603000
b1001100 b
#604000
b11000 B
b11000 P
b11000 S
b11000 _
b11000 F
b11000 J
b11000 \
b110000011111 -
b110000011111 f
b110000011111 p
b0xx0x /
b0xx0x j
b11000 @
b11000 H
b11000 a
b11000 s
b110000011111 ;
b110000011111 n
b1100 7
b1100 k
b10000 9
b10000 c
b11111000010000011000001111101100 ?
b11111000010000011000001111101100 Z
b11111000010000011000001111101100 r
#607000
b1101100 b
#660000
1#
#680000
b111111111011111010100111110111101010110110111110111011111111 4
b111111111011111010100111110111101010110110111110111011111111 g
b111111111011111010100111110111101010110110111110111011111111 h
b111111111011111010100111110111101010110110111110111011111111 5
b111111111011111010100111110111101010110110111110111011111111 Q
b111111111011111010100111110111101010110110111110111011111111 e
b111111111011111010100111110111101010110110111110111011111111 !
b111111111011111010100111110111101010110110111110111011111111 (
b111111111011111010100111110111101010110110111110111011111111 A
b111111111011111010100111110111101010110110111110111011111111 O
b111111111011111010100111110111101010110110111110111011111111 T
#720000
b10000 "
b10000 G
b10000 W
b10000 `
b110 '
0#
#721000
b10100 d
#723000
b1110000 b
#724000
b100000 B
b100000 P
b100000 S
b100000 _
b100000 F
b100000 J
b100000 \
b1000000011111 -
b1000000011111 f
b1000000011111 p
b0xxxx /
b0xxxx j
b100000 @
b100000 H
b100000 a
b100000 s
b1000000011111 ;
b1000000011111 n
b1101 7
b1101 k
b10100 9
b10100 c
b11111000010000100000001111101101 ?
b11111000010000100000001111101101 Z
b11111000010000100000001111101101 r
#727000
b10010000 b
#780000
1#
#800000
b0 4
b0 g
b0 h
b0 5
b0 Q
b0 e
b0 !
b0 (
b0 A
b0 O
b0 T
#840000
b10100 "
b10100 G
b10100 W
b10100 `
b111 '
0#
#841000
b11000 d
#843000
b10010100 b
#844000
bx 4
bx g
bx h
x*
bx 5
bx Q
bx e
bx ,
bx N
bx q
b1 E
b1 L
b1 [
0=
0>
0D
06
bx B
bx P
bx S
bx _
bx F
bx J
bx \
b101100000001010 -
b101100000001010 f
b101100000001010 p
b1011 /
b1011 j
b0 @
b0 H
b0 a
b0 s
b101100000001010 ;
b101100000001010 n
b10101010000 8
b10101010000 K
b1010 0
b1010 i
b1010 7
b1010 k
b11000 9
b11000 c
b10101010000010110000000101001010 ?
b10101010000010110000000101001010 Z
b10101010000010110000000101001010 r
#845000
b1111 4
b1111 g
b1111 h
b1111 5
b1111 Q
b1111 e
b101 F
b101 J
b101 \
0*
b1111 B
b1111 P
b1111 S
b1111 _
b101 2
b101 I
b101 R
b101 m
b1010 3
b1010 ]
b1010 l
#847000
b10100 b
#900000
1#
#960000
b11000 "
b11000 G
b11000 W
b11000 `
b1000 '
0#
#961000
b11100 d
#963000
b11000 b
#964000
b0 4
b0 g
b0 h
b0 5
b0 Q
b0 e
1*
b0 B
b0 P
b0 S
b0 _
b0 E
b0 L
b0 [
b101000000001100 -
b101000000001100 f
b101000000001100 p
b1010 /
b1010 j
b101000000001100 ;
b101000000001100 n
b10001010000 8
b10001010000 K
b1100 0
b1100 i
b1100 7
b1100 k
b11100 9
b11100 c
b10001010000010100000000110001100 ?
b10001010000010100000000110001100 Z
b10001010000010100000000110001100 r
#965000
b1111 4
b1111 g
b1111 h
b1111 5
b1111 Q
b1111 e
b1111 F
b1111 J
b1111 \
0*
b1111 B
b1111 P
b1111 S
b1111 _
b1111 2
b1111 I
b1111 R
b1111 m
b111111111011111010100111110111101010110110111110111011111111 3
b111111111011111010100111110111101010110110111110111011111111 ]
b111111111011111010100111110111101010110110111110111011111111 l
#1020000
1#
#1080000
b11100 "
b11100 G
b11100 W
b11100 `
b1001 '
0#
#1081000
b100000 d
#1083000
b11100 b
#1084000
b0 4
b0 g
b0 h
b100 @
b100 H
b100 a
b100 s
b0 5
b0 Q
b0 e
b11 ,
b11 N
b11 q
b111 E
b111 L
b111 [
1C
01
x>
16
b100 -
b100 f
b100 p
b1100 /
b1100 j
b100 ;
b100 n
b10110100000 8
b10110100000 K
b100 0
b100 i
b100000 9
b100000 c
b10110100000000000000000010001100 ?
b10110100000000000000000010001100 Z
b10110100000000000000000010001100 r
#1085000
bx 3
bx ]
bx l
#1087000
b101100 b
#1140000
1#
#1200000
b100000 "
b100000 G
b100000 W
b100000 `
b1010 '
0#
#1201000
b100100 d
#1203000
b110000 b
#1204000
bx 4
bx g
bx h
x*
bx B
bx P
bx S
bx _
bx 5
bx Q
bx e
bx ,
bx N
bx q
b10 E
b10 L
b10 [
0C
11
0>
06
b100100000001101 -
b100100000001101 f
b100100000001101 p
b1001 /
b1001 j
b0 @
b0 H
b0 a
b0 s
b100100000001101 ;
b100100000001101 n
b10001011000 8
b10001011000 K
b1101 0
b1101 i
b1101 7
b1101 k
b100100 9
b100100 c
b10001011000010010000000110101101 ?
b10001011000010010000000110101101 Z
b10001011000010010000000110101101 r
#1206000
b1 4
b1 g
b1 h
b1 5
b1 Q
b1 e
b1 F
b1 J
b1 \
0*
b1 B
b1 P
b1 S
b1 _
b1 2
b1 I
b1 R
b1 m
b0 3
b0 ]
b0 l
#1207000
b100000 b
#1260000
1#
#1320000
b100100 "
b100100 G
b100100 W
b100100 `
b1011 '
0#
#1321000
b101000 d
#1323000
b100100 b
#1324000
b1111111111111111111111111111111111111111111111111111111111111111 4
b1111111111111111111111111111111111111111111111111111111111111111 g
b1111111111111111111111111111111111111111111111111111111111111111 h
b1111111111111111111111111111111111111111111111111111111111111111 5
b1111111111111111111111111111111111111111111111111111111111111111 Q
b1111111111111111111111111111111111111111111111111111111111111111 e
b1111111111111111111111111111111111111111111111111111111111111111 B
b1111111111111111111111111111111111111111111111111111111111111111 P
b1111111111111111111111111111111111111111111111111111111111111111 S
b1111111111111111111111111111111111111111111111111111111111111111 _
b110 E
b110 L
b110 [
b100100000001100 -
b100100000001100 f
b100100000001100 p
b100100000001100 ;
b100100000001100 n
b11001011000 8
b11001011000 K
b1100 0
b1100 i
b1100 7
b1100 k
b101000 9
b101000 c
b11001011000010010000000110001100 ?
b11001011000010010000000110001100 Z
b11001011000010010000000110001100 r
#1325000
b1110 4
b1110 g
b1110 h
b1110 5
b1110 Q
b1110 e
b1110 B
b1110 P
b1110 S
b1110 _
b1111 3
b1111 ]
b1111 l
#1380000
1#
#1440000
b101000 "
b101000 G
b101000 W
b101000 `
b1100 '
0#
#1441000
b101100 d
#1443000
b101000 b
#1444000
b0 4
b0 g
b0 h
b1111111111111111111111111111111111111111111111111111111111111101 @
b1111111111111111111111111111111111111111111111111111111111111101 H
b1111111111111111111111111111111111111111111111111111111111111101 a
b1111111111111111111111111111111111111111111111111111111111111101 s
b0 5
b0 Q
b0 e
b0 F
b0 J
b0 \
b10 ,
b10 N
b10 q
bx E
bx L
bx [
1+
xC
01
x>
xD
x6
b1111111111111111 -
b1111111111111111 f
b1111111111111111 p
b111x1 /
b111x1 j
b1111111111111111 ;
b1111111111111111 n
b10111111 8
b10111111 K
b11111 0
b11111 i
b11101 7
b11101 k
b101100 9
b101100 c
b10111111111111111111111111101 ?
b10111111111111111111111111101 Z
b10111111111111111111111111101 r
#1445000
bx 2
bx I
bx R
bx m
b0 3
b0 ]
b0 l
#1447000
b11100 b
#1448000
b11100 9
b11100 c
#1500000
1#
#1560000
b11100 "
b11100 G
b11100 W
b11100 `
b1101 '
0#
#1561000
b100000 d
#1563000
b10000 b
#1564000
x*
bx B
bx P
bx S
bx _
bx F
bx J
bx \
b11 ,
b11 N
b11 q
b111 E
b111 L
b111 [
0+
1C
0D
16
b100 -
b100 f
b100 p
b1100 /
b1100 j
b100 @
b100 H
b100 a
b100 s
b100 ;
b100 n
b10110100000 8
b10110100000 K
b100 0
b100 i
b1100 7
b1100 k
b10000 9
b10000 c
b10110100000000000000000010001100 ?
b10110100000000000000000010001100 Z
b10110100000000000000000010001100 r
#1566000
0*
b1110 B
b1110 P
b1110 S
b1110 _
b1110 F
b1110 J
b1110 \
b1110 2
b1110 I
b1110 R
b1110 m
bx 3
bx ]
bx l
#1567000
b101100 b
#1568000
b100000 9
b100000 c
#1620000
1#
#1680000
b100000 "
b100000 G
b100000 W
b100000 `
b1110 '
0#
#1681000
b100100 d
#1683000
b110000 b
#1684000
bx 4
bx g
bx h
x*
bx B
bx P
bx S
bx _
bx 5
bx Q
bx e
bx ,
bx N
bx q
b10 E
b10 L
b10 [
0C
11
0>
06
b100100000001101 -
b100100000001101 f
b100100000001101 p
b1001 /
b1001 j
b0 @
b0 H
b0 a
b0 s
b100100000001101 ;
b100100000001101 n
b10001011000 8
b10001011000 K
b1101 0
b1101 i
b1101 7
b1101 k
b100100 9
b100100 c
b10001011000010010000000110101101 ?
b10001011000010010000000110101101 Z
b10001011000010010000000110101101 r
#1686000
b10 4
b10 g
b10 h
b10 5
b10 Q
b10 e
b1 F
b1 J
b1 \
0*
b10 B
b10 P
b10 S
b10 _
b1 2
b1 I
b1 R
b1 m
b1 3
b1 ]
b1 l
#1687000
b100000 b
#1740000
1#
#1800000
b100100 "
b100100 G
b100100 W
b100100 `
b1111 '
0#
#1801000
b101000 d
#1803000
b100100 b
#1804000
b0 4
b0 g
b0 h
b0 5
b0 Q
b0 e
1*
b0 B
b0 P
b0 S
b0 _
b110 E
b110 L
b110 [
b100100000001100 -
b100100000001100 f
b100100000001100 p
b100100000001100 ;
b100100000001100 n
b11001011000 8
b11001011000 K
b1100 0
b1100 i
b1100 7
b1100 k
b101000 9
b101000 c
b11001011000010010000000110001100 ?
b11001011000010010000000110001100 Z
b11001011000010010000000110001100 r
#1805000
b1101 4
b1101 g
b1101 h
b1101 5
b1101 Q
b1101 e
0*
b1101 B
b1101 P
b1101 S
b1101 _
b1110 3
b1110 ]
b1110 l
#1860000
1#
#1920000
b101000 "
b101000 G
b101000 W
b101000 `
b10000 '
0#
#1921000
b101100 d
#1923000
b101000 b
#1924000
b0 4
b0 g
b0 h
b1111111111111111111111111111111111111111111111111111111111111101 @
b1111111111111111111111111111111111111111111111111111111111111101 H
b1111111111111111111111111111111111111111111111111111111111111101 a
b1111111111111111111111111111111111111111111111111111111111111101 s
b0 5
b0 Q
b0 e
b0 F
b0 J
b0 \
b10 ,
b10 N
b10 q
bx E
bx L
bx [
1+
xC
01
x>
xD
x6
b1111111111111111 -
b1111111111111111 f
b1111111111111111 p
b111x1 /
b111x1 j
b1111111111111111 ;
b1111111111111111 n
b10111111 8
b10111111 K
b11111 0
b11111 i
b11101 7
b11101 k
b101100 9
b101100 c
b10111111111111111111111111101 ?
b10111111111111111111111111101 Z
b10111111111111111111111111101 r
#1925000
bx 2
bx I
bx R
bx m
b0 3
b0 ]
b0 l
#1927000
b11100 b
#1928000
b11100 9
b11100 c
#1980000
1#
#2040000
b11100 "
b11100 G
b11100 W
b11100 `
b10001 '
0#
#2041000
b100000 d
#2043000
b10000 b
#2044000
x*
bx B
bx P
bx S
bx _
bx F
bx J
bx \
b11 ,
b11 N
b11 q
b111 E
b111 L
b111 [
0+
1C
0D
16
b100 -
b100 f
b100 p
b1100 /
b1100 j
b100 @
b100 H
b100 a
b100 s
b100 ;
b100 n
b10110100000 8
b10110100000 K
b100 0
b100 i
b1100 7
b1100 k
b10000 9
b10000 c
b10110100000000000000000010001100 ?
b10110100000000000000000010001100 Z
b10110100000000000000000010001100 r
#2046000
0*
b1101 B
b1101 P
b1101 S
b1101 _
b1101 F
b1101 J
b1101 \
b1101 2
b1101 I
b1101 R
b1101 m
bx 3
bx ]
bx l
#2047000
b101100 b
#2048000
b100000 9
b100000 c
#2100000
1#
#2160000
b100000 "
b100000 G
b100000 W
b100000 `
b10010 '
0#
#2161000
b100100 d
#2163000
b110000 b
#2164000
bx 4
bx g
bx h
x*
bx B
bx P
bx S
bx _
bx 5
bx Q
bx e
bx ,
bx N
bx q
b10 E
b10 L
b10 [
0C
11
0>
06
b100100000001101 -
b100100000001101 f
b100100000001101 p
b1001 /
b1001 j
b0 @
b0 H
b0 a
b0 s
b100100000001101 ;
b100100000001101 n
b10001011000 8
b10001011000 K
b1101 0
b1101 i
b1101 7
b1101 k
b100100 9
b100100 c
b10001011000010010000000110101101 ?
b10001011000010010000000110101101 Z
b10001011000010010000000110101101 r
#2166000
b11 4
b11 g
b11 h
b11 5
b11 Q
b11 e
b1 F
b1 J
b1 \
0*
b11 B
b11 P
b11 S
b11 _
b1 2
b1 I
b1 R
b1 m
b10 3
b10 ]
b10 l
#2167000
b100000 b
#2220000
1#
#2280000
b100100 "
b100100 G
b100100 W
b100100 `
b10011 '
0#
#2281000
b101000 d
#2283000
b100100 b
#2284000
b1 4
b1 g
b1 h
b1 5
b1 Q
b1 e
b1 B
b1 P
b1 S
b1 _
b110 E
b110 L
b110 [
b100100000001100 -
b100100000001100 f
b100100000001100 p
b100100000001100 ;
b100100000001100 n
b11001011000 8
b11001011000 K
b1100 0
b1100 i
b1100 7
b1100 k
b101000 9
b101000 c
b11001011000010010000000110001100 ?
b11001011000010010000000110001100 Z
b11001011000010010000000110001100 r
#2285000
b1100 4
b1100 g
b1100 h
b1100 5
b1100 Q
b1100 e
b1100 B
b1100 P
b1100 S
b1100 _
b1101 3
b1101 ]
b1101 l
#2340000
1#
#2400000
b101000 "
b101000 G
b101000 W
b101000 `
b10100 '
0#
#2401000
b101100 d
#2403000
b101000 b
#2404000
b0 4
b0 g
b0 h
b1111111111111111111111111111111111111111111111111111111111111101 @
b1111111111111111111111111111111111111111111111111111111111111101 H
b1111111111111111111111111111111111111111111111111111111111111101 a
b1111111111111111111111111111111111111111111111111111111111111101 s
b0 5
b0 Q
b0 e
b0 F
b0 J
b0 \
b10 ,
b10 N
b10 q
bx E
bx L
bx [
1+
xC
01
x>
xD
x6
b1111111111111111 -
b1111111111111111 f
b1111111111111111 p
b111x1 /
b111x1 j
b1111111111111111 ;
b1111111111111111 n
b10111111 8
b10111111 K
b11111 0
b11111 i
b11101 7
b11101 k
b101100 9
b101100 c
b10111111111111111111111111101 ?
b10111111111111111111111111101 Z
b10111111111111111111111111101 r
#2405000
bx 2
bx I
bx R
bx m
b0 3
b0 ]
b0 l
#2407000
b11100 b
#2408000
b11100 9
b11100 c
#2460000
1#
#2520000
b11100 "
b11100 G
b11100 W
b11100 `
b10101 '
0#
#2521000
b100000 d
#2523000
b10000 b
#2524000
x*
bx B
bx P
bx S
bx _
bx F
bx J
bx \
b11 ,
b11 N
b11 q
b111 E
b111 L
b111 [
0+
1C
0D
16
b100 -
b100 f
b100 p
b1100 /
b1100 j
b100 @
b100 H
b100 a
b100 s
b100 ;
b100 n
b10110100000 8
b10110100000 K
b100 0
b100 i
b1100 7
b1100 k
b10000 9
b10000 c
b10110100000000000000000010001100 ?
b10110100000000000000000010001100 Z
b10110100000000000000000010001100 r
#2526000
0*
b1100 B
b1100 P
b1100 S
b1100 _
b1100 F
b1100 J
b1100 \
b1100 2
b1100 I
b1100 R
b1100 m
bx 3
bx ]
bx l
#2527000
b101100 b
#2528000
b100000 9
b100000 c
#2580000
1#
#2640000
b100000 "
b100000 G
b100000 W
b100000 `
b10110 '
0#
#2641000
b100100 d
#2643000
b110000 b
#2644000
bx 4
bx g
bx h
x*
bx B
bx P
bx S
bx _
bx 5
bx Q
bx e
bx ,
bx N
bx q
b10 E
b10 L
b10 [
0C
11
0>
06
b100100000001101 -
b100100000001101 f
b100100000001101 p
b1001 /
b1001 j
b0 @
b0 H
b0 a
b0 s
b100100000001101 ;
b100100000001101 n
b10001011000 8
b10001011000 K
b1101 0
b1101 i
b1101 7
b1101 k
b100100 9
b100100 c
b10001011000010010000000110101101 ?
b10001011000010010000000110101101 Z
b10001011000010010000000110101101 r
#2646000
b100 4
b100 g
b100 h
b100 5
b100 Q
b100 e
b1 F
b1 J
b1 \
0*
b100 B
b100 P
b100 S
b100 _
b1 2
b1 I
b1 R
b1 m
b11 3
b11 ]
b11 l
#2647000
b100000 b
#2700000
1#
#2760000
b100100 "
b100100 G
b100100 W
b100100 `
b10111 '
0#
#2761000
b101000 d
#2763000
b100100 b
#2764000
b10 4
b10 g
b10 h
b10 5
b10 Q
b10 e
b10 B
b10 P
b10 S
b10 _
b110 E
b110 L
b110 [
b100100000001100 -
b100100000001100 f
b100100000001100 p
b100100000001100 ;
b100100000001100 n
b11001011000 8
b11001011000 K
b1100 0
b1100 i
b1100 7
b1100 k
b101000 9
b101000 c
b11001011000010010000000110001100 ?
b11001011000010010000000110001100 Z
b11001011000010010000000110001100 r
#2765000
b1011 4
b1011 g
b1011 h
b1011 5
b1011 Q
b1011 e
b1011 B
b1011 P
b1011 S
b1011 _
b1100 3
b1100 ]
b1100 l
#2820000
1#
#2880000
b101000 "
b101000 G
b101000 W
b101000 `
b11000 '
0#
#2881000
b101100 d
#2883000
b101000 b
#2884000
b0 4
b0 g
b0 h
b1111111111111111111111111111111111111111111111111111111111111101 @
b1111111111111111111111111111111111111111111111111111111111111101 H
b1111111111111111111111111111111111111111111111111111111111111101 a
b1111111111111111111111111111111111111111111111111111111111111101 s
b0 5
b0 Q
b0 e
b0 F
b0 J
b0 \
b10 ,
b10 N
b10 q
bx E
bx L
bx [
1+
xC
01
x>
xD
x6
b1111111111111111 -
b1111111111111111 f
b1111111111111111 p
b111x1 /
b111x1 j
b1111111111111111 ;
b1111111111111111 n
b10111111 8
b10111111 K
b11111 0
b11111 i
b11101 7
b11101 k
b101100 9
b101100 c
b10111111111111111111111111101 ?
b10111111111111111111111111101 Z
b10111111111111111111111111101 r
#2885000
bx 2
bx I
bx R
bx m
b0 3
b0 ]
b0 l
#2887000
b11100 b
#2888000
b11100 9
b11100 c
#2940000
1#
#3000000
b11100 "
b11100 G
b11100 W
b11100 `
b11001 '
0#
#3001000
b100000 d
#3003000
b10000 b
#3004000
x*
bx B
bx P
bx S
bx _
bx F
bx J
bx \
b11 ,
b11 N
b11 q
b111 E
b111 L
b111 [
0+
1C
0D
16
b100 -
b100 f
b100 p
b1100 /
b1100 j
b100 @
b100 H
b100 a
b100 s
b100 ;
b100 n
b10110100000 8
b10110100000 K
b100 0
b100 i
b1100 7
b1100 k
b10000 9
b10000 c
b10110100000000000000000010001100 ?
b10110100000000000000000010001100 Z
b10110100000000000000000010001100 r
#3006000
0*
b1011 B
b1011 P
b1011 S
b1011 _
b1011 F
b1011 J
b1011 \
b1011 2
b1011 I
b1011 R
b1011 m
bx 3
bx ]
bx l
#3007000
b101100 b
#3008000
b100000 9
b100000 c
#3060000
1#
#3120000
b100000 "
b100000 G
b100000 W
b100000 `
b11010 '
0#
#3121000
b100100 d
#3123000
b110000 b
#3124000
bx 4
bx g
bx h
x*
bx B
bx P
bx S
bx _
bx 5
bx Q
bx e
bx ,
bx N
bx q
b10 E
b10 L
b10 [
0C
11
0>
06
b100100000001101 -
b100100000001101 f
b100100000001101 p
b1001 /
b1001 j
b0 @
b0 H
b0 a
b0 s
b100100000001101 ;
b100100000001101 n
b10001011000 8
b10001011000 K
b1101 0
b1101 i
b1101 7
b1101 k
b100100 9
b100100 c
b10001011000010010000000110101101 ?
b10001011000010010000000110101101 Z
b10001011000010010000000110101101 r
#3126000
b101 4
b101 g
b101 h
b101 5
b101 Q
b101 e
b1 F
b1 J
b1 \
0*
b101 B
b101 P
b101 S
b101 _
b1 2
b1 I
b1 R
b1 m
b100 3
b100 ]
b100 l
#3127000
b100000 b
#3180000
1#
#3240000
b100100 "
b100100 G
b100100 W
b100100 `
b11011 '
0#
#3241000
b101000 d
#3243000
b100100 b
#3244000
b11 4
b11 g
b11 h
b11 5
b11 Q
b11 e
b11 B
b11 P
b11 S
b11 _
b110 E
b110 L
b110 [
b100100000001100 -
b100100000001100 f
b100100000001100 p
b100100000001100 ;
b100100000001100 n
b11001011000 8
b11001011000 K
b1100 0
b1100 i
b1100 7
b1100 k
b101000 9
b101000 c
b11001011000010010000000110001100 ?
b11001011000010010000000110001100 Z
b11001011000010010000000110001100 r
#3245000
b1010 4
b1010 g
b1010 h
b1010 5
b1010 Q
b1010 e
b1010 B
b1010 P
b1010 S
b1010 _
b1011 3
b1011 ]
b1011 l
#3300000
1#
#3360000
b101000 "
b101000 G
b101000 W
b101000 `
b11100 '
0#
#3361000
b101100 d
#3363000
b101000 b
#3364000
b0 4
b0 g
b0 h
b1111111111111111111111111111111111111111111111111111111111111101 @
b1111111111111111111111111111111111111111111111111111111111111101 H
b1111111111111111111111111111111111111111111111111111111111111101 a
b1111111111111111111111111111111111111111111111111111111111111101 s
b0 5
b0 Q
b0 e
b0 F
b0 J
b0 \
b10 ,
b10 N
b10 q
bx E
bx L
bx [
1+
xC
01
x>
xD
x6
b1111111111111111 -
b1111111111111111 f
b1111111111111111 p
b111x1 /
b111x1 j
b1111111111111111 ;
b1111111111111111 n
b10111111 8
b10111111 K
b11111 0
b11111 i
b11101 7
b11101 k
b101100 9
b101100 c
b10111111111111111111111111101 ?
b10111111111111111111111111101 Z
b10111111111111111111111111101 r
#3365000
bx 2
bx I
bx R
bx m
b0 3
b0 ]
b0 l
#3367000
b11100 b
#3368000
b11100 9
b11100 c
#3420000
1#
#3480000
b11100 "
b11100 G
b11100 W
b11100 `
b11101 '
0#
#3481000
b100000 d
#3483000
b10000 b
#3484000
x*
bx B
bx P
bx S
bx _
bx F
bx J
bx \
b11 ,
b11 N
b11 q
b111 E
b111 L
b111 [
0+
1C
0D
16
b100 -
b100 f
b100 p
b1100 /
b1100 j
b100 @
b100 H
b100 a
b100 s
b100 ;
b100 n
b10110100000 8
b10110100000 K
b100 0
b100 i
b1100 7
b1100 k
b10000 9
b10000 c
b10110100000000000000000010001100 ?
b10110100000000000000000010001100 Z
b10110100000000000000000010001100 r
#3486000
0*
b1010 B
b1010 P
b1010 S
b1010 _
b1010 F
b1010 J
b1010 \
b1010 2
b1010 I
b1010 R
b1010 m
bx 3
bx ]
bx l
#3487000
b101100 b
#3488000
b100000 9
b100000 c
#3540000
1#
